
.. _file_core_include_qb_core_noise_model_noise_properties.hpp:

File noise_properties.hpp
=========================

|exhale_lsh| :ref:`Parent directory <dir_core_include_qb_core_noise_model>` (``core/include/qb/core/noise_model``)

.. |exhale_lsh| unicode:: U+021B0 .. UPWARDS ARROW WITH TIP LEFTWARDS


.. contents:: Contents
   :local:
   :backlinks: none

Definition (``core/include/qb/core/noise_model/noise_properties.hpp``)
----------------------------------------------------------------------






Includes
--------


- ``map``

- ``unordered_map``

- ``vector``



Included By
-----------


- :ref:`file_core_include_qb_core_noise_model_noise_model.hpp`




Namespaces
----------


- :ref:`namespace_qb`


Classes
-------


- :ref:`exhale_struct_structqb_1_1NoiseProperties`

- :ref:`exhale_struct_structqb_1_1NoiseProperties_1_1ReadoutError`

